Eksploracja tekstu z R
…
rdo: kaggle.com

unnest_token

library(tidytext)

data[1:5, ] %>% select(X1, description) %>%
  unnest_tokens(word, description)

## # A tibble: 166 x 2
##       X1      word
##    <int>     <chr>
##  1     0    aromas
##  2     0   include
##  3     0  tropical
##  4     0     fruit
##  5     0     broom
##  6     0 brimstone
##  7     0       and
##  8     0     dried
##  9     0      herb
## 10     0       the
## # ... with 156 more rows
…
data[1:5, ] %>% select(X1, description) %>%
  unnest_tokens(word, description, token = "sentences") %>% glimpse()

## Observations: 12
## Variables: 2
## $ X1   <int> 0, 0, 1, 1, 1, 2, 2, 2, 3, 3, 4, 4
## $ word <chr> "aromas include tropical fruit, broom, brimstone and drie...

n-gramy

data[1:5, ] %>% select(X1, description) %>%
  unnest_tokens(word, description, token = "ngrams", n = 2)

## # A tibble: 161 x 2
##       X1             word
##    <int>            <chr>
##  1     0   aromas include
##  2     0 include tropical
##  3     0   tropical fruit
##  4     0      fruit broom
##  5     0  broom brimstone
##  6     0    brimstone and
##  7     0        and dried
##  8     0       dried herb
##  9     0         herb the
## 10     0       the palate
## # ... with 151 more rows

stop words

stop_words

## # A tibble: 1,149 x 2
##           word lexicon
##          <chr>   <chr>
##  1           a   SMART
##  2         a's   SMART
##  3        able   SMART
##  4       about   SMART
##  5       above   SMART
##  6   according   SMART
##  7 accordingly   SMART
##  8      across   SMART
##  9    actually   SMART
## 10       after   SMART
## # ... with 1,139 more rows

Badanie frekwencji sw

# tworzymy dane tidy text
text_df <- data %>%
  select(X1, description) %>%
  unnest_tokens(word, description)

# zliczamy sowa we wszystkich opisach
count(text_df, word, sort = T)

## # A tibble: 33,467 x 2
##       word      n
##      <chr>  <int>
##  1     and 347897
##  2     the 221350
##  3       a 179909
##  4      of 173049
##  5    with 120514
##  6    this 114185
##  7      is  96816
##  8    wine  78322
##  9 flavors  62791
## 10      in  62522
## # ... with 33,457 more rows

Frekwencja istotnych sw

count(text_df %>% 
        anti_join(stop_words), 
      word,
      sort = T)

## # A tibble: 32,801 x 2
##       word     n
##      <chr> <int>
##  1    wine 78322
##  2 flavors 62791
##  3   fruit 49927
##  4  aromas 39639
##  5  palate 38437
##  6 acidity 34999
##  7  finish 34971
##  8 tannins 30877
##  9   drink 30318
## 10  cherry 29321
## # ... with 32,791 more rows
…
wiczenie

Przeprowadzi analiz rnicy wystpowania sw w opisach w zalenoci od kraju pochodzenia wina. Proponuje podzieli kraje na 4 kategorie: US, France, Italy, Other.

Sownik BING

bing <- get_sentiments("bing")
bing

## # A tibble: 6,788 x 2
##           word sentiment
##          <chr>     <chr>
##  1     2-faced  negative
##  2     2-faces  negative
##  3          a+  positive
##  4    abnormal  negative
##  5     abolish  negative
##  6  abominable  negative
##  7  abominably  negative
##  8   abominate  negative
##  9 abomination  negative
## 10       abort  negative
## # ... with 6,778 more rows
…
Sownik NRC

nrc <- get_sentiments("nrc")
unique(nrc$sentiment)

##  [1] "trust"        "fear"         "negative"     "sadness"     
##  [5] "anger"        "surprise"     "positive"     "disgust"     
##  [9] "joy"          "anticipation"

nrc

## # A tibble: 13,901 x 2
##           word sentiment
##          <chr>     <chr>
##  1      abacus     trust
##  2     abandon      fear
##  3     abandon  negative
##  4     abandon   sadness
##  5   abandoned     anger
##  6   abandoned      fear
##  7   abandoned  negative
##  8   abandoned   sadness
##  9 abandonment     anger
## 10 abandonment      fear
## # ... with 13,891 more rows
…
